{
  "twitter" : {
    "credentials": {
      "consumer_key": "DtTvGMiuDlPH8dbq5enZI2sZG",
      "consumer_secret": "HYxIXLCK2mhEkg10I2EGnONcuIRWeR5EQot0YX7nIeMuv6CcRL",
      "access_token_key": "2223739206-0VF97E1jXAZKukdqX027oW1Hx8Ks9wEgvTjWoE8",
      "access_token_secret": "KN3iIlJtlknbR9zeADcfswfFXXLka3Gthf7URcRmQkKho"
    },
    "params": {
      "count": 200,
      "trim_user": 1,
      "include_rts": 1
    }
  },
  "sentry": {
    "app": "104573",
    "key": "bf9a1661058a4b2c91d6a55d79949b67:916435c764ac42c094157cbac1345541"
  }
}
